lxqt-build-tools
libqtxdg
liblxqt
libsysstat
libfm-extra
menu-cache
libfm-qt
lxqt-themes
lxqt-qtplugin
openbox
obconf-qt
pavucontrol-qt
qtermwidget
lximage-qt
lxqt-about
lxqt-admin
lxqt-archiver
lxqt-config
lxqt-globalkeys
lxqt-notificationd
lxqt-openssh-askpass
lxqt-policykit
lxqt-session
lxqt-sudo
pcmanfm-qt
qterminal
libstatgrab
lxqt-panel
lxqt-powermanagement
muParser
lxqt-runner
nm-tray
qlipper
featherpad
lxqt-appswitcher
